Place,Name,BirthYear,Country,BodyweightKg,Bench1Kg,Bench2Kg,Bench3Kg,Best3BenchKg,TotalKg,WeightClassKg,Division,Event,Sex,Equipment
1,Yasufumi Kimura,1975,JPN,58.8,-210,210,-220,210,210,59,Open,B,M,Single-ply
2,Igor Garashchenko,1988,UKR,58.97,180,185,-190,185,185,59,Open,B,M,Single-ply
3,Dariusz Wszoła,1978,POL,58.8,175,-180,182.5,182.5,182.5,59,Open,B,M,Single-ply
4,Slawomir Sledz,1976,POL,58.71,175,180,-182.5,180,180,59,Open,B,M,Single-ply
5,Eskil Myrvang Fredrik,1990,NOR,55.36,165,-172.5,-180,165,165,59,Open,B,M,Single-ply
6,Jesse Johnson,1990,GBR,58.45,110,-120,-120,110,110,59,Open,B,M,Single-ply
1,Yan Urusov,1989,RUS,65.55,225,-235,241,241,241,66,Open,B,M,Single-ply
2,Manuel Virgilio,1974,FRA,65.75,222.5,-227.5,-227.5,222.5,222.5,66,Open,B,M,Single-ply
3,Hisayuki Nakayama,1963,JPN,64.24,220,-225,-225,220,220,66,Open,B,M,Single-ply
4,Adam Balawejder,1981,POL,65.97,210,-227.5,-227.5,210,210,66,Open,B,M,Single-ply
5,Aaron Gideon,1980,GBR,63.7,-170,170,-185,170,170,66,Open,B,M,Single-ply
DD,Ivan Chuprinko,1986,UKR,65.92,235,240.5,241.5,241.5,,66,Open,B,M,Single-ply
1,Daiki Kodama,1979,JPN,72.63,260,275,-301,275,275,74,Open,B,M,Single-ply
2,Oleg Butenko,1983,KAZ,72.3,245,250,-260,250,250,74,Open,B,M,Single-ply
3,Arthur Mashinskiy,1987,RUS,73.82,242.5,247.5,-257.5,247.5,247.5,74,Open,B,M,Single-ply
DQ,Christian Hedman,1982,SWE,73.74,-220,-220,-220,,,74,Open,B,M,Single-ply
1,Yuki Fukushima,1986,JPN,81.5,305,-310,-311.5,305,305,83,Open,B,M,Single-ply
2,Daniel Miller,1988,POL,80.22,275,-285,285,285,285,83,Open,B,M,Single-ply
3,Askar Shokhanov,1983,KAZ,82.54,277.5,-287.5,-287.5,277.5,277.5,83,Open,B,M,Single-ply
4,Andriy Andruchshenko,1987,UKR,82.55,250,260,-277.5,260,260,83,Open,B,M,Single-ply
5,Luke Hanifen,1981,USA,82.48,250,-260,-260,250,250,83,Open,B,M,Single-ply
6,Kim Beck-Gundersen,1985,NOR,82.28,-245,245,-277.5,245,245,83,Open,B,M,Single-ply
7,Mads Friche,1982,DEN,82.64,217.5,222.5,235,235,235,83,Open,B,M,Single-ply
8,Raik Guenterberg,1989,GER,79.86,225,232.5,-240,232.5,232.5,83,Open,B,M,Single-ply
DQ,Sergey Kniazev,1976,RUS,80.12,-307.5,-307.5,-311,,,83,Open,B,M,Single-ply
1,Eduard Tebenkov,1990,RUS,91.82,310,315,318.5,318.5,318.5,93,Open,B,M,Single-ply
2,Adam Mamola,1977,USA,92.14,310,-312.5,-317.5,310,310,93,Open,B,M,Single-ply
3,Andrii Krymov,1985,UKR,92.36,300,310,-317.5,310,310,93,Open,B,M,Single-ply
4,Goki Omuro,1993,JPN,86.28,290,-300,300,300,300,93,Open,B,M,Single-ply
5,Thiago Grahl,1987,BRA,92.21,-295,295,-312.5,295,295,93,Open,B,M,Single-ply
6,Fredrick Jader,1979,SWE,92.26,290,-300,-310,290,290,93,Open,B,M,Single-ply
7,Roger Navarsete,1990,NOR,92.48,275,280,-282.5,280,280,93,Open,B,M,Single-ply
8,Simon Kankkonen,1982,FIN,92.96,280,-297.5,-312.5,280,280,93,Open,B,M,Single-ply
9,Michael Hildebrandt,1984,GER,92.23,-275,275,-280,275,275,93,Open,B,M,Single-ply
10,Kitsui Masahito,1978,HKG,91.04,-255,255,-272.5,255,255,93,Open,B,M,Single-ply
11,Aaron Lohan,1983,GBR,88.41,205,215,220,220,220,93,Open,B,M,Single-ply
12,Alexander Christensen,1992,DEN,91.69,215,-220,-220,215,215,93,Open,B,M,Single-ply
DQ,Yuki Sato,1983,JPN,91.74,-312.5,-312.5,-315,,,93,Open,B,M,Single-ply
DQ,Jan Wegiera,1965,POL,92.39,-300,-300,-312.5,,,93,Open,B,M,Single-ply
DQ,Tommy Navarsete,1978,NOR,92.58,-267.5,-267.5,-280,,,93,Open,B,M,Single-ply
DQ,Majid Hajiaghabozorg,1978,IRI,92.98,-280,-280,-280,,,93,Open,B,M,Single-ply
1,Vladimir Grishaev,1981,RUS,102.54,317.5,325,336,336,336,105,Open,B,M,Single-ply
2,Tumenjargal Dashzegve,1987,MGL,104.31,305,315,320,320,320,105,Open,B,M,Single-ply
3,Stefan Jamroz,1980,SWE,104.94,-310,310,320,320,320,105,Open,B,M,Single-ply
4,Volodymyr Bettiar,1984,UKR,101.97,305,312.5,317.5,317.5,317.5,105,Open,B,M,Single-ply
5,Allan Grenier,1990,FRA,105,307.5,317.5,-320,317.5,317.5,105,Open,B,M,Single-ply
6,Tomasz Obcowski,1979,POL,104.1,-300,300,-315,300,300,105,Open,B,M,Single-ply
7,Masahiko Kassai,1971,JPN,103.28,292.5,-307.5,-315,292.5,292.5,105,Open,B,M,Single-ply
8,Erik Fredriksen,1992,NOR,103.15,-272.5,272.5,290,290,290,105,Open,B,M,Single-ply
9,Marcin Karkula,1987,POL,101.91,260,-290,-290,260,260,105,Open,B,M,Single-ply
DQ,Luis Jaimes,1989,USA,103.86,-290,-290,-290,,,105,Open,B,M,Single-ply
DQ,Patrick Van Der Putten,1980,NED,104.19,-285,-285,,,,105,Open,B,M,Single-ply
1,Shinji Ueda,1972,JPN,118.72,-350,350,355,355,355,120,Open,B,M,Single-ply
2,Brady Stewart,1982,USA,119.17,327.5,-335,335,335,335,120,Open,B,M,Single-ply
3,Sergey Selezen,1980,RUS,119.46,320,335,-350.5,335,335,120,Open,B,M,Single-ply
4,Christoffer Öberg,1985,SWE,118.91,-330,330,-335,330,330,120,Open,B,M,Single-ply
5,Ruslan Pavlikov,1978,RUS,116.99,325,-342.5,-342.5,325,325,120,Open,B,M,Single-ply
6,Fridrich Matejík,1983,SVK,119.9,285,300,-312.5,300,300,120,Open,B,M,Single-ply
7,Valeriy Melnyk,1987,UKR,112.96,265,275,-300,275,275,120,Open,B,M,Single-ply
8,René Groß,1981,GER,118.34,270,-280,-300,270,270,120,Open,B,M,Single-ply
9,Majid Shahnavaz,1981,IRI,110.98,-255,255,-280,255,255,120,Open,B,M,Single-ply
DQ,Jeremy Auerbach,1987,USA,118.75,-310,-310,-310,,,120,Open,B,M,Single-ply
DQ,Chimedtseren Bataa,1981,MGL,118.93,-332.5,-332.5,-337.5,,,120,Open,B,M,Single-ply
DQ,Per Marius Hole,1989,NOR,119.43,-325,-325,-332.5,,,120,Open,B,M,Single-ply
DQ,Altangerel Bujinlkham,1976,MGL,119.65,-330,-340,-345,,,120,Open,B,M,Single-ply
1,Jonathan Leo,1977,USA,158.24,-390,-390,392.5,392.5,392.5,120+,Open,B,M,Single-ply
2,Fredrik Smulter,1983,FIN,154.96,-387.5,390,-402,390,390,120+,Open,B,M,Single-ply
3,Ove Lehto,1972,FIN,147.88,350,357.5,370,370,370,120+,Open,B,M,Single-ply
4,Fredrik Svensson,1979,SWE,152.24,370,-375,-390,370,370,120+,Open,B,M,Single-ply
5,Jaroslav Šoukal,1972,CZE,168.29,355,-362.5,-365,355,355,120+,Open,B,M,Single-ply
6,Kaido Leesmann,1969,EST,132.35,300,312.5,320,320,320,120+,Open,B,M,Single-ply
DQ,Jeffrey Snyder,1971,USA,134.27,-350,-350,-357.5,,,120+,Open,B,M,Single-ply
DQ,Alastair McColl,1981,NOR,138.9,-345,-345,-357.5,,,120+,Open,B,M,Single-ply
1,Egidijus Valčiukas,1998,LTU,52.64,-140,142.5,151,151,151,53,Sub-Juniors,B,M,Single-ply
2,Yo Tamura,1999,JPN,52.7,125,137.5,150.5,150.5,150.5,53,Sub-Juniors,B,M,Single-ply
3,Sultan Bexeiit,1998,KAZ,52.62,130,140,147.5,147.5,147.5,53,Sub-Juniors,B,M,Single-ply
4,Jakub Jedrzejewski,2001,POL,52.73,110,120,-122.5,120,120,53,Sub-Juniors,B,M,Single-ply
5,Rostyslav Kinishchuk,1999,UKR,52.17,-100,100,-110,100,100,53,Sub-Juniors,B,M,Single-ply
1,Aleksey Rikhter,1998,RUS,58.63,140,145,147.5,147.5,147.5,59,Sub-Juniors,B,M,Single-ply
2,Zhanassyl Khabidulla,1999,KAZ,58.38,130,135,145,145,145,59,Sub-Juniors,B,M,Single-ply
3,Faustas Kavaliauskas,1998,LTU,58.36,110,115,120,120,120,59,Sub-Juniors,B,M,Single-ply
4,Natan Balogh,2000,HUN,58.51,90,115,-120,115,115,59,Sub-Juniors,B,M,Single-ply
1,Kuanyshbay Tulegenov,1998,KAZ,65.3,-160,160,165,165,165,66,Sub-Juniors,B,M,Single-ply
2,Aleksey Bogdanov,1998,RUS,64.5,150,157.5,162.5,162.5,162.5,66,Sub-Juniors,B,M,Single-ply
3,Michal Skonieczny,1998,POL,65.37,145,150,-160,150,150,66,Sub-Juniors,B,M,Single-ply
4,Sukhbat Sukhbaatar,1999,MGL,65.31,120,130,-152.5,130,130,66,Sub-Juniors,B,M,Single-ply
1,Zhavlan Shaukatov,1998,KAZ,73.14,182.5,185,187.5,187.5,187.5,74,Sub-Juniors,B,M,Single-ply
2,Vadim Maleiko,1998,RUS,73.86,175,185,-190,185,185,74,Sub-Juniors,B,M,Single-ply
3,Karol Budziwol,1998,POL,72.18,115,125,130,130,130,74,Sub-Juniors,B,M,Single-ply
1,Aleksey Smolkin,1998,RUS,82.64,175,182.5,187.5,187.5,187.5,83,Sub-Juniors,B,M,Single-ply
2,Cecil Richards,1998,USA,82.03,175,182.5,-187.5,182.5,182.5,83,Sub-Juniors,B,M,Single-ply
3,Nikolaj Nordstrøm,1999,DEN,81.34,-155,155,-160,155,155,83,Sub-Juniors,B,M,Single-ply
4,Tautvydas Sutkus,1998,LTU,81.93,155,-160,-160,155,155,83,Sub-Juniors,B,M,Single-ply
1,Igor Shitko,1998,RUS,92.78,-220,220,-238.5,220,220,93,Sub-Juniors,B,M,Single-ply
2,Leonardo Freitas,1999,BRA,92.19,180,-220,-220,180,180,93,Sub-Juniors,B,M,Single-ply
1,Dawid Grzegorczuk,1998,POL,100.33,-275,275,-296,275,275,105,Sub-Juniors,B,M,Single-ply
2,Aleh Kudrautsau,1998,LAT,101.25,220,225,232.5,232.5,232.5,105,Sub-Juniors,B,M,Single-ply
3,Takhirzhan Abdurakhmanov,1998,KAZ,98.82,147.5,157.5,-170,157.5,157.5,105,Sub-Juniors,B,M,Single-ply
1,Vladislav Chvalov,1998,RUS,107.2,120,135,140,140,140,120,Sub-Juniors,B,M,Single-ply
1,Martin Tretyn,1999,POL,134.93,180,-190,190,190,190,120+,Sub-Juniors,B,M,Single-ply
2,Ryan Ratcliff,1998,USA,134.12,137.5,155,-180,155,155,120+,Sub-Juniors,B,M,Single-ply
1,Georgii Klimenko,1995,RUS,52.23,142.5,150,-170,150,150,53,Juniors,B,M,Single-ply
2,Gennadiy Yadne,1994,RUS,52.13,130,137.5,-150,137.5,137.5,53,Juniors,B,M,Single-ply
3,Hiroto Moriwaki,1995,JPN,52.46,110,-120,-120,110,110,53,Juniors,B,M,Single-ply
1,Motoki Murata,1997,JPN,58.3,170,180,-205.5,180,180,59,Juniors,B,M,Single-ply
2,Alisher Makhmudov,1995,KAZ,58.45,172.5,-182.5,-182.5,172.5,172.5,59,Juniors,B,M,Single-ply
3,Pawel Hadas,1993,POL,59,100,135,-145,135,135,59,Juniors,B,M,Single-ply
1,Haruya Okada,1996,JPN,65.87,215,225,-240.5,225,225,66,Juniors,B,M,Single-ply
2,Cyril Caron,1994,FRA,65.62,167.5,-182.5,182.5,182.5,182.5,66,Juniors,B,M,Single-ply
1,Pavel Dolgov,1993,RUS,73.58,-215,215,222.5,222.5,222.5,74,Juniors,B,M,Single-ply
2,Takahiro Ono,1994,JPN,73.57,-215,215,-225,215,215,74,Juniors,B,M,Single-ply
3,Roman Pecho,1995,SVK,72.02,190,200,210,210,210,74,Juniors,B,M,Single-ply
4,Andrzej Paszko,1994,POL,71.38,190,205,-212.5,205,205,74,Juniors,B,M,Single-ply
5,Yoshinari Takayama,1993,JPN,73.65,-200,200,-207.5,200,200,74,Juniors,B,M,Single-ply
6,Tibor Fazekas,1996,HUN,73.11,110,170,-175,170,170,74,Juniors,B,M,Single-ply
1,Vladislav Shaibekov,1995,RUS,82.52,215,225,232.5,232.5,232.5,83,Juniors,B,M,Single-ply
2,Daudon Bakken Sebastian,1993,NOR,80.8,197.5,202.5,215,215,215,83,Juniors,B,M,Single-ply
3,Andrew Reiss,1994,USA,82.49,207.5,215,-225,215,215,83,Juniors,B,M,Single-ply
4,Gergo Vari-Szalai,1996,HUN,82.4,170,180,-185,180,180,83,Juniors,B,M,Single-ply
5,Mickel Dahl,1996,DEN,82.88,150,-155,-160,150,150,83,Juniors,B,M,Single-ply
DQ,Tomohisa Murano,1994,JPN,78.39,-220,-220,-232.5,,,83,Juniors,B,M,Single-ply
1,Easton Schuster,1996,USA,90.15,242.5,245,260,260,260,93,Juniors,B,M,Single-ply
2,Soshi Ito,1995,JPN,92.18,205,212.5,225,225,225,93,Juniors,B,M,Single-ply
3,Michal Kojder,1997,POL,90.04,205,220,-245,220,220,93,Juniors,B,M,Single-ply
4,Szymon Czerwicki,1996,POL,84.59,200,210,-222.5,210,210,93,Juniors,B,M,Single-ply
5,Christian Flueras,1996,GER,89.9,187.5,200,-212.5,200,200,93,Juniors,B,M,Single-ply
1,Mariusz Hintzke,1994,POL,97.35,300,310,320,320,320,105,Juniors,B,M,Single-ply
2,Ralf Male,1994,NOR,103.28,257.5,262.5,270,270,270,105,Juniors,B,M,Single-ply
3,Christian Martinsson,1993,SWE,104.04,252.5,260,267.5,267.5,267.5,105,Juniors,B,M,Single-ply
4,Kamil Sypka,1994,POL,100.58,240,250,260,260,260,105,Juniors,B,M,Single-ply
5,Conrad Hansson,1994,SWE,104.28,250,-260,-265,250,250,105,Juniors,B,M,Single-ply
6,Daniel Haerter,1995,GER,104.01,230,240,-255,240,240,105,Juniors,B,M,Single-ply
7,Jacob Weiss,1995,USA,101.52,230,-242.5,-262.5,230,230,105,Juniors,B,M,Single-ply
1,Kevin Jaeger,1995,GER,120,317.5,-343.5,343.5,343.5,343.5,120,Juniors,B,M,Single-ply
2,Viktor Samúelsson,1993,ISL,119.6,-285,290,-317.5,290,290,120,Juniors,B,M,Single-ply
3,Yevhen Vasyliev,1993,UKR,116.15,265,275,280,280,280,120,Juniors,B,M,Single-ply
4,Lukas Skrib,1994,SVK,109.81,240,260,277.5,277.5,277.5,120,Juniors,B,M,Single-ply
5,Jakob Thrane Mainz,1993,DEN,119.64,260,267.5,-277.5,267.5,267.5,120,Juniors,B,M,Single-ply
6,Tristan Nazelrod,1996,USA,116.64,242.5,-260,-280,242.5,242.5,120,Juniors,B,M,Single-ply
1,Sergey Usov,1993,RUS,121.96,305,317.5,330,330,330,120+,Juniors,B,M,Single-ply
2,John Caruso,1993,USA,129.83,260,280,295,295,295,120+,Juniors,B,M,Single-ply
3,Viktor Ben Gestsson,1996,ISL,143.08,-295,295,-297.5,295,295,120+,Juniors,B,M,Single-ply
4,Graham Mellor,1994,GBR,159.73,280,-290,-290,280,280,120+,Juniors,B,M,Single-ply
DQ,Cody Kennedy,1995,USA,125.98,-260,-260,-260,,,120+,Juniors,B,M,Single-ply
1,Kazuo Nakata,1967,JPN,58.77,175,-198,-198,175,175,59,Masters 1,B,M,Single-ply
1,Mickael Bernard,1970,FRA,64.83,197.5,-202.5,202.5,202.5,202.5,66,Masters 1,B,M,Single-ply
2,Marcus Holmgren,1975,SWE,65.78,140,152.5,-160,152.5,152.5,66,Masters 1,B,M,Single-ply
DQ,Naoya Ikeda,1970,JPN,63.54,-200,-200,-200,,,66,Masters 1,B,M,Single-ply
1,Michio Yasue,1970,JPN,73.78,225,231,-244,231,231,74,Masters 1,B,M,Single-ply
2,Kiyoshi Matsuoka,1971,JPN,73.81,192.5,202.5,-231.5,202.5,202.5,74,Masters 1,B,M,Single-ply
3,Bartosz Zelazko,1973,POL,73.25,190,-200,-202.5,190,190,74,Masters 1,B,M,Single-ply
4,Rafal Szendera,1971,POL,73.77,-170,170,-192.5,170,170,74,Masters 1,B,M,Single-ply
5,Espen Kirkhaug,1971,NOR,73.69,-165,-165,165,165,165,74,Masters 1,B,M,Single-ply
6,Klaus Larsen,1972,DEN,72.86,155,-165,-165,155,155,74,Masters 1,B,M,Single-ply
1,Markus Schick,1976,GER,82.59,242.5,245,-260.5,245,245,83,Masters 1,B,M,Single-ply
2,Cyril Pinguet,1972,FRA,82.03,230,-235,240,240,240,83,Masters 1,B,M,Single-ply
3,Shigenari Suzuki,1973,JPN,82.59,225,232.5,-240,232.5,232.5,83,Masters 1,B,M,Single-ply
4,Tomi Vikla,1970,FIN,82.88,225,232.5,-242.5,232.5,232.5,83,Masters 1,B,M,Single-ply
5,Takayuki Miyamoto,1973,JPN,81.56,220,-230,-232.5,220,220,83,Masters 1,B,M,Single-ply
6,Fabrice Bertin,1967,FRA,82.59,205,210,217.5,217.5,217.5,83,Masters 1,B,M,Single-ply
7,Michael Melchiorsen,1972,DEN,82.63,-210,210,-215,210,210,83,Masters 1,B,M,Single-ply
8,Mohammadreza Khosravi Mirzaei,1969,IRI,82.5,-180,182.5,-192.5,182.5,182.5,83,Masters 1,B,M,Single-ply
9,Lukasz Glowacz,1976,POL,82.12,150,152.5,-162.5,152.5,152.5,83,Masters 1,B,M,Single-ply
DQ,Miguel Ruelan,1970,USA,81.61,-215,-215,-215,,,83,Masters 1,B,M,Single-ply
DQ,Ankhbaatar Munkhuu,1970,MGL,82.8,-232.5,-232.5,-237.5,,,83,Masters 1,B,M,Single-ply
1,Grzegorz Nocek,1973,POL,91.13,265,270,272.5,272.5,272.5,93,Masters 1,B,M,Single-ply
2,Thomas Wetzstein,1974,AUT,91.78,255,-260,-260,255,255,93,Masters 1,B,M,Single-ply
3,Pete Grohoski,1970,USA,92.63,250,-257.5,-262.5,250,250,93,Masters 1,B,M,Single-ply
4,Ivar Hellerud Alf,1969,NOR,91.45,-230,230,-257.5,230,230,93,Masters 1,B,M,Single-ply
5,Michel Marneur,1968,FRA,91.98,230,-250,-257.5,230,230,93,Masters 1,B,M,Single-ply
6,Bo Jensen Henrik,1967,DEN,92.54,205,215,-222.5,215,215,93,Masters 1,B,M,Single-ply
7,Akihisa Takemura,1973,JPN,91.79,-180,180,-215,180,180,93,Masters 1,B,M,Single-ply
DQ,Petteri Laurikainen,1969,FIN,91.83,-240,-240,-240,,,93,Masters 1,B,M,Single-ply
DD,Munkhbayar Lamjav,1976,MGL,92.66,255,257.5,272.5,272.5,,93,Masters 1,B,M,Single-ply
1,Timothy Anderson,1972,USA,103.44,292.5,295,-318,295,295,105,Masters 1,B,M,Single-ply
2,Khaled Ghazal,1972,CZE,104.6,262.5,267.5,280,280,280,105,Masters 1,B,M,Single-ply
3,Tomoyuki Yamamori,1972,JPN,103.97,270,277.5,-300,277.5,277.5,105,Masters 1,B,M,Single-ply
4,Frederic Beyon,1975,FRA,103.59,240,250,-267.5,250,250,105,Masters 1,B,M,Single-ply
5,Martin Green,1974,GBR,104.44,250,-257.5,-257.5,250,250,105,Masters 1,B,M,Single-ply
6,Henning Tornes,1976,NOR,104.25,227.5,232.5,-237.5,232.5,232.5,105,Masters 1,B,M,Single-ply
7,Arild Kraakenes,1968,NOR,104.76,225,230,-252.5,230,230,105,Masters 1,B,M,Single-ply
8,Thomas Kraemer,1970,GER,103.79,210,217.5,225,225,225,105,Masters 1,B,M,Single-ply
9,Don Wilson,1968,USA,103.03,215,222.5,-232.5,222.5,222.5,105,Masters 1,B,M,Single-ply
10,Arnaud Clavier,1975,FRA,104.01,200,212.5,220,220,220,105,Masters 1,B,M,Single-ply
11,Mats Rindemark,1970,SWE,103.8,217.5,-222.5,-222.5,217.5,217.5,105,Masters 1,B,M,Single-ply
12,Joergen Michael Rasmussen,1973,DEN,104.27,160,-170,172.5,172.5,172.5,105,Masters 1,B,M,Single-ply
13,Timo Lillbacka,1975,FIN,103.87,100,,,100,100,105,Masters 1,B,M,Single-ply
DQ,Timo Rukkila,1972,FIN,103.64,-170,-170,-170,,,105,Masters 1,B,M,Single-ply
1,Conny Blomgren,1968,SWE,118.77,-300,302.5,-310,302.5,302.5,120,Masters 1,B,M,Single-ply
2,Olav Kompelien,1972,NOR,118.18,287.5,-295,295,295,295,120,Masters 1,B,M,Single-ply
3,Lasse Leinonen,1973,FIN,119.4,295,-302.5,-305,295,295,120,Masters 1,B,M,Single-ply
4,Zbyněk Krejča,1974,CZE,119.85,295,-302.5,-305,295,295,120,Masters 1,B,M,Single-ply
5,Charles Duval,1972,FRA,119.62,290,-300,-302.5,290,290,120,Masters 1,B,M,Single-ply
6,Jens Christalle,1970,GER,114.18,265,-300,-302.5,265,265,120,Masters 1,B,M,Single-ply
7,Thomas Skov,1971,DEN,119.76,-252.5,-252.5,252.5,252.5,252.5,120,Masters 1,B,M,Single-ply
DQ,Vico Ruck,1974,GER,119.33,-245,-245,-262.5,,,120,Masters 1,B,M,Single-ply
DQ,Pål Guddal,1971,NOR,119.74,-310,-310,-310,,,120,Masters 1,B,M,Single-ply
1,Kenneth Sandvik,1975,FIN,142.78,335,345,-375,345,345,120+,Masters 1,B,M,Single-ply
2,František Janák,1975,CZE,129.38,307.5,315,322.5,322.5,322.5,120+,Masters 1,B,M,Single-ply
3,Jan Pinc,1973,CZE,129.09,-280,280,292.5,292.5,292.5,120+,Masters 1,B,M,Single-ply
4,Jerome Guidez,1974,FRA,143.28,290,-310,-310,290,290,120+,Masters 1,B,M,Single-ply
5,Robert Kretzschmar,1976,GER,129.06,285,-300,-300,285,285,120+,Masters 1,B,M,Single-ply
6,Örjan Dahl,1970,SWE,148.52,-280,280,-295,280,280,120+,Masters 1,B,M,Single-ply
7,Jan Hofmann,1972,DEN,123.58,225,227.5,235,235,235,120+,Masters 1,B,M,Single-ply
DQ,Boldbaatar Purev,1972,MGL,139.16,-300,-300,-302.5,,,120+,Masters 1,B,M,Single-ply
1,Štefan Koľšovský,1961,SVK,58.5,137.5,140,145,145,145,59,Masters 2,B,M,Single-ply
2,Jay Helms,1964,USA,58.56,122.5,-130,130,130,130,59,Masters 2,B,M,Single-ply
3,Masato Hashimoto,1957,JPN,58.04,122.5,125,-130,125,125,59,Masters 2,B,M,Single-ply
1,Olivier Waymel,1966,FRA,65.78,180,185,200,200,200,66,Masters 2,B,M,Single-ply
2,Charles Smith,1960,NED,65.13,165,-170,-170,165,165,66,Masters 2,B,M,Single-ply
3,Shunsuke Kamioka,1957,JPN,65.39,152.5,155,-157.5,155,155,66,Masters 2,B,M,Single-ply
4,Tahvo Jauhojärvi,1961,FIN,65.76,135,140,145,145,145,66,Masters 2,B,M,Single-ply
5,Hideaki Nakamura,1960,JPN,65.58,-130,-130,130,130,130,66,Masters 2,B,M,Single-ply
6,Frank Wunderlich,1964,GER,64.81,120,-125,-125,120,120,66,Masters 2,B,M,Single-ply
1,Alphonse Cucuzzella,1966,FRA,73.07,200,207.5,213,213,213,74,Masters 2,B,M,Single-ply
2,Toshio Matsuoka,1963,JPN,72.5,160,-200,-207.5,160,160,74,Masters 2,B,M,Single-ply
3,Grzegorz Leski,1958,POL,73.48,135,140,-162.5,140,140,74,Masters 2,B,M,Single-ply
4,Gert Olsen,1963,DEN,73.25,130,-135,-140,130,130,74,Masters 2,B,M,Single-ply
1,Jukka Saunamäki,1961,SWE,82.7,205,210,-217.5,210,210,83,Masters 2,B,M,Single-ply
2,Sigve Valentinsen,1960,NOR,82.91,205,210,-215,210,210,83,Masters 2,B,M,Single-ply
3,Donovan Thompson,1966,USA,81.95,207.5,-212.5,-212.5,207.5,207.5,83,Masters 2,B,M,Single-ply
4,Thomas Cencich,1960,USA,82.78,-200,200,-210,200,200,83,Masters 2,B,M,Single-ply
5,Axel Gent,1963,GER,82,192.5,197.5,-205,197.5,197.5,83,Masters 2,B,M,Single-ply
6,Tomas Ring,1960,SWE,82.37,195,-205,-210,195,195,83,Masters 2,B,M,Single-ply
7,Veiko Friedrich,1964,GER,80.73,-165,165,-170,165,165,83,Masters 2,B,M,Single-ply
8,Georges Mingot,1964,FRA,81.51,160,-165,-167.5,160,160,83,Masters 2,B,M,Single-ply
9,William Dadley,1964,GBR,81.7,140,150,-155,150,150,83,Masters 2,B,M,Single-ply
DQ,Jos Van Kersbergen,1957,NED,82.35,-165,-165,,,,83,Masters 2,B,M,Single-ply
1,Frans van der Putten,1962,NED,92.65,255,-257.5,-260,255,255,93,Masters 2,B,M,Single-ply
2,Uwe Hering,1963,GER,92.69,225,230,-232.5,230,230,93,Masters 2,B,M,Single-ply
3,Gemel Bougamdouz,1963,FRA,92.11,217.5,-225,-225,217.5,217.5,93,Masters 2,B,M,Single-ply
4,Peter Ericson,1963,SWE,92.5,195,-202.5,205,205,205,93,Masters 2,B,M,Single-ply
5,James Brown,1965,USA,91.57,187.5,202.5,-217.5,202.5,202.5,93,Masters 2,B,M,Single-ply
6,Søren Bertelsen,1961,DEN,92.39,195,-200,-200,195,195,93,Masters 2,B,M,Single-ply
7,Risto Hirvonen,1961,FIN,86.92,125,132.5,140,140,140,93,Masters 2,B,M,Single-ply
8,Glyn Belsher,1958,GBR,91.34,120,127.5,-135,127.5,127.5,93,Masters 2,B,M,Single-ply
DQ,Bakyt Kerimbekov,1961,KGZ,92.2,-235,-235,-235,,,93,Masters 2,B,M,Single-ply
DQ,Jiří Kati,1965,CZE,92.4,-252.5,-255,-255,,,93,Masters 2,B,M,Single-ply
1,Mariusz Hadrysiak,1961,POL,104.98,272.5,282.5,285,285,285,105,Masters 2,B,M,Single-ply
2,Mike Ferrantelli,1966,USA,103.88,257.5,272.5,282.5,282.5,282.5,105,Masters 2,B,M,Single-ply
3,Satoshi Ito,1966,JPN,103.5,240,242.5,-272.5,242.5,242.5,105,Masters 2,B,M,Single-ply
4,Wieslaw Dominik,1965,POL,104.2,-242.5,242.5,-247.5,242.5,242.5,105,Masters 2,B,M,Single-ply
5,Philippe Szezepanski,1964,FRA,102.9,235,240,-245,240,240,105,Masters 2,B,M,Single-ply
6,Fabrice Leroy,1963,FRA,103.93,225,237.5,-245,237.5,237.5,105,Masters 2,B,M,Single-ply
7,Mio Dabeski,1965,SWE,103.24,180,195,202.5,202.5,202.5,105,Masters 2,B,M,Single-ply
8,Mats Green,1964,SWE,99.86,200,-207.5,-207.5,200,200,105,Masters 2,B,M,Single-ply
9,Oleksandr Sharov,1964,GER,104.17,185,192.5,200,200,200,105,Masters 2,B,M,Single-ply
10,Paul Hammond,1963,GBR,102.9,180,190,-210,190,190,105,Masters 2,B,M,Single-ply
11,Tarmo Vanhamäki,1960,FIN,99.16,170,180,-190,180,180,105,Masters 2,B,M,Single-ply
DQ,Koichi Nakatani,1960,JPN,104.3,-220,-220,-230,,,105,Masters 2,B,M,Single-ply
1,David Doan,1964,USA,119.01,277.5,280,290.5,290.5,290.5,120,Masters 2,B,M,Single-ply
2,Einar Voldseth Kurt,1966,NOR,119.64,230,240,250,250,250,120,Masters 2,B,M,Single-ply
3,Rolf Faass,1965,GER,116.52,180,190,195,195,195,120,Masters 2,B,M,Single-ply
DQ,Mikael Jaldefors,1966,SWE,119.49,-275,-275,-275,,,120,Masters 2,B,M,Single-ply
1,John Christensen,1961,DEN,132.46,300,307.5,309,309,309,120+,Masters 2,B,M,Single-ply
2,Kjell Furesund,1966,NOR,135.95,290,302.5,308,308,308,120+,Masters 2,B,M,Single-ply
3,Robert Blom,1966,SWE,133.74,-300,300,-308.5,300,300,120+,Masters 2,B,M,Single-ply
4,Georg Haug,1965,GER,148.94,245,-250,250,250,250,120+,Masters 2,B,M,Single-ply
5,Udo Thielking,1961,GER,134.01,-235,235,-240,235,235,120+,Masters 2,B,M,Single-ply
6,Malm Tomas,1966,SWE,132.28,205,-210,210,210,210,120+,Masters 2,B,M,Single-ply
7,Jan Vestergaard,1966,DEN,128.48,200,-207.5,-207.5,200,200,120+,Masters 2,B,M,Single-ply
DQ,Daniel Gaudreau,1960,USA,140.97,-275,-275,-275,,,120+,Masters 2,B,M,Single-ply
DQ,William Gillespie,1959,USA,145.03,-290,-290,-302.5,,,120+,Masters 2,B,M,Single-ply
1,Hiroyuki Isagawa,1953,JPN,57.15,140,-147.5,-150,140,140,59,Masters 3,B,M,Single-ply
2,Jevgenijs Vorobjovs,1953,LAT,58.28,-112.5,112.5,115,115,115,59,Masters 3,B,M,Single-ply
DQ,Shinichi Iitsuka,1956,JPN,58.14,-110,-110,-110,,,59,Masters 3,B,M,Single-ply
1,Claude Sitruk,1950,FRA,65.4,147.5,152.5,-157.5,152.5,152.5,66,Masters 3,B,M,Single-ply
2,Keiji Sato,1952,JPN,65.91,152.5,-157.5,-157.5,152.5,152.5,66,Masters 3,B,M,Single-ply
3,Birger Sundstøl,1954,NOR,65.44,102.5,107.5,110,110,110,66,Masters 3,B,M,Single-ply
4,Seppo Flink,1953,FIN,65.21,102.5,105,107.5,107.5,107.5,66,Masters 3,B,M,Single-ply
1,Detlef Heinrich,1956,GER,73.22,160,-162.5,162.5,162.5,162.5,74,Masters 3,B,M,Single-ply
2,Daniel Sides,1956,USA,73.56,145,150,160,160,160,74,Masters 3,B,M,Single-ply
3,Takeshi Monoe,1952,JPN,73.23,152.5,157.5,-165,157.5,157.5,74,Masters 3,B,M,Single-ply
4,Antero Kauranen,1948,FIN,73.52,150,-157.5,-157.5,150,150,74,Masters 3,B,M,Single-ply
5,Roy Male,1955,NOR,72.56,125,-130,-130,125,125,74,Masters 3,B,M,Single-ply
DQ,Yasuhiro Hayashi,1956,JPN,72.9,-155,-160,-165,,,74,Masters 3,B,M,Single-ply
1,Bjarne Synstad,1951,NOR,81.93,205,-210,-217.5,205,205,83,Masters 3,B,M,Single-ply
2,Miroslav Fugiel,1955,POL,82.72,172.5,177.5,182.5,182.5,182.5,83,Masters 3,B,M,Single-ply
3,Krzysztof Kuchnio,1956,POL,82.02,170,175,180,180,180,83,Masters 3,B,M,Single-ply
4,Haruki Imaizumi,1947,JPN,81.72,-150,150,155,155,155,83,Masters 3,B,M,Single-ply
5,Jorma Liimatainen,1953,SWE,81.29,145,150,152.5,152.5,152.5,83,Masters 3,B,M,Single-ply
6,Gerhard Baumeister,1952,GER,81.82,-150,150,-175,150,150,83,Masters 3,B,M,Single-ply
7,Alain Collard,1952,FRA,81.51,145,-150,-152.5,145,145,83,Masters 3,B,M,Single-ply
8,Voitto Ahopelto,1956,FIN,82.44,135,-147.5,-152.5,135,135,83,Masters 3,B,M,Single-ply
1,Stanislaw Mentel,1954,POL,92.76,220,227.5,-235,227.5,227.5,93,Masters 3,B,M,Single-ply
2,Hans-Jürgen Ehrt,1956,GER,90.13,-210,210,212.5,212.5,212.5,93,Masters 3,B,M,Single-ply
3,Osamu Iijima,1954,JPN,88.04,200,205,210,210,210,93,Masters 3,B,M,Single-ply
4,David Williams #2,1953,GBR,89.15,185,192.5,200,200,200,93,Masters 3,B,M,Single-ply
5,Laurent Durocher,1952,FRA,91.1,155,165,170,170,170,93,Masters 3,B,M,Single-ply
1,Helmut Reimann,1951,GER,102.22,200,205,207.5,207.5,207.5,105,Masters 3,B,M,Single-ply
2,Björn Iversen,1955,SWE,104.55,195,202.5,207.5,207.5,207.5,105,Masters 3,B,M,Single-ply
3,Werner Richter,1947,GER,102.39,195,202.5,-207.5,202.5,202.5,105,Masters 3,B,M,Single-ply
4,Paul Den Ouden,1954,NED,100.24,185,192.5,-202.5,192.5,192.5,105,Masters 3,B,M,Single-ply
5,Harri Tirronen,1953,FIN,104.1,185,192.5,-202.5,192.5,192.5,105,Masters 3,B,M,Single-ply
6,Janos Pokornyi,1952,HUN,103.7,-180,180,-195,180,180,105,Masters 3,B,M,Single-ply
7,Martin Flett,1956,GBR,103.44,-160,160,-182.5,160,160,105,Masters 3,B,M,Single-ply
8,Hans Thyssing,1953,DEN,100.68,155,-162.5,-182.5,155,155,105,Masters 3,B,M,Single-ply
1,Alexander Ringvold Vidar,1955,NOR,107.76,205,215,-220,215,215,120,Masters 3,B,M,Single-ply
2,Hans-Peter Falk,1951,GER,113.36,200,210,-220,210,210,120,Masters 3,B,M,Single-ply
3,Allan Fuglsang,1950,DEN,111.04,185,190,-200,190,190,120,Masters 3,B,M,Single-ply
4,Franz Mracek,1947,AUT,112.55,170,175,-180,175,175,120,Masters 3,B,M,Single-ply
1,Eberhard Schwanke,1953,GER,146.35,220,-222.5,242.5,242.5,242.5,120+,Masters 3,B,M,Single-ply
2,Dainis Reinholds,1951,LAT,125.04,-241,-241,241,241,241,120+,Masters 3,B,M,Single-ply
3,Robert Crawford,1951,USA,139.22,175,187.5,200,200,200,120+,Masters 3,B,M,Single-ply
4,Karl-Heinz May,1953,GER,125.59,185,190,-200,190,190,120+,Masters 3,B,M,Single-ply
1,Pierre Gallart,1944,FRA,57.96,100,110,115,115,115,59,Masters 4,B,M,Single-ply
2,Ludwig Werner,1938,GER,58.7,75,80,82.5,82.5,82.5,59,Masters 4,B,M,Single-ply
3,Masami Otaki,1942,JPN,54.93,80,-90,-90,80,80,59,Masters 4,B,M,Single-ply
1,Shigeki Yamamoto,1943,JPN,65.41,110,117.5,-128.5,117.5,117.5,66,Masters 4,B,M,Single-ply
2,Mats Johansson,1945,SWE,64.97,85,95,-97.5,95,95,66,Masters 4,B,M,Single-ply
3,Roger Little,1942,GBR,65.61,57.5,62.5,-67.5,62.5,62.5,66,Masters 4,B,M,Single-ply
1,Boleslaw Maka,1942,POL,73.43,-145,145,151,151,151,74,Masters 4,B,M,Single-ply
2,Michel Dernoncourt,1946,FRA,72.28,142.5,147.5,150.5,150.5,150.5,74,Masters 4,B,M,Single-ply
3,Tamio Yasui,1942,JPN,73.12,105,110,115,115,115,74,Masters 4,B,M,Single-ply
1,Mike Settles,1944,USA,81.5,142.5,150,156.5,156.5,156.5,83,Masters 4,B,M,Single-ply
2,Horst Lorenz,1940,GER,77.31,125,130,-135,130,130,83,Masters 4,B,M,Single-ply
3,Arthur Ahle,1941,GER,81.63,110,115,-120,115,115,83,Masters 4,B,M,Single-ply
4,Svend Stensgaard,1922,DEN,78.26,70,75,80,80,80,83,Masters 4,B,M,Single-ply
1,Hans Jørgen Jørgensen,1944,DEN,88.04,150,155,157.5,157.5,157.5,93,Masters 4,B,M,Single-ply
2,Malcolm Slinger,1945,AUS,89.6,145,155,-160,155,155,93,Masters 4,B,M,Single-ply
3,Seppo Komppa,1945,FIN,92.03,150,155,-160,155,155,93,Masters 4,B,M,Single-ply
4,Adriaan Fabrie,1946,NED,92.52,120,-130,-130,120,120,93,Masters 4,B,M,Single-ply
5,Mike Edwards,1946,GBR,91.19,115,-122.5,-122.5,115,115,93,Masters 4,B,M,Single-ply
DQ,Harald Will,1940,GER,90.15,-150,-150,-157.5,,,93,Masters 4,B,M,Single-ply
DQ,Katsuji Kawabe,1944,JPN,92.26,-150,-150,-157.5,,,93,Masters 4,B,M,Single-ply
1,Tom Collins,1946,GBR,102.74,182.5,193.5,-201.5,193.5,193.5,105,Masters 4,B,M,Single-ply
2,Robert Evans,1946,USA,103.95,155,162.5,-172.5,162.5,162.5,105,Masters 4,B,M,Single-ply
3,Lothar Hildebrandt,1943,GER,100.75,140,147.5,150,150,150,105,Masters 4,B,M,Single-ply
4,John Moore,1937,USA,98.75,125,130,-135,130,130,105,Masters 4,B,M,Single-ply
5,Mujir El Alami,1946,SWE,104.3,125,-142.5,-150,125,125,105,Masters 4,B,M,Single-ply
6,Adolf Rohrbacher,1938,AUT,93.25,115,-125,-125,115,115,105,Masters 4,B,M,Single-ply
DQ,Daniel Pasternak,1936,SWE,95.96,-120,-120,-120,,,105,Masters 4,B,M,Single-ply
1,Niilo Maliniemi,1946,SWE,117.65,210,-220,-220,210,210,120,Masters 4,B,M,Single-ply
2,Josef Hermann,1946,GER,113.89,165,-170,-172.5,165,165,120,Masters 4,B,M,Single-ply
DQ,Christer Nylund,1944,FIN,108.35,-170,-170,-170,,,120,Masters 4,B,M,Single-ply
1,Valdis Alksnitis,1941,LAT,141.55,200.5,-202.5,202.5,202.5,202.5,120+,Masters 4,B,M,Single-ply
1,Yvelise Martin,1982,FRA,46.57,80,-87.5,87.5,87.5,87.5,47,Open,B,F,Single-ply
DQ,Hiroko Arai,1963,JPN,46.51,-100,-100,-100,,,47,Open,B,F,Single-ply
1,Marcela Sandvik,1974,FIN,51.72,115,120,125,125,125,52,Open,B,F,Single-ply
2,Kaori Nagaya-Shirakawa,1963,JPN,51.81,-125,125,-127.5,125,125,52,Open,B,F,Single-ply
3,Olga Golubeva,1970,RUS,51.82,115,120,-127.5,120,120,52,Open,B,F,Single-ply
1,Larisa Kotkova,1974,RUS,55.86,147.5,152.5,155,155,155,57,Open,B,F,Single-ply
2,Anastasia Petrova,1985,RUS,56.5,145,-152.5,-155,145,145,57,Open,B,F,Single-ply
3,Nina Eriksson,1989,SWE,56.48,132.5,-135,-145,132.5,132.5,57,Open,B,F,Single-ply
4,Mélodie Anthouard,1988,FRA,56.79,120,125,-135,125,125,57,Open,B,F,Single-ply
5,Monika Sroczyk,1992,POL,56.63,110,115,-120,115,115,57,Open,B,F,Single-ply
6,Jadwiga Radwanska,1975,POL,56.59,105,-112.5,-115,105,105,57,Open,B,F,Single-ply
7,Mette Rasmussen,1985,DEN,56.88,-90,90,95,95,95,57,Open,B,F,Single-ply
1,Gundula Fiona Sommer von Bachhaus,1981,GER,61.28,160,165,184,184,184,63,Open,B,F,Single-ply
2,Fanney Hauksdóttir,1992,ISL,61.73,152.5,-155,-155,152.5,152.5,63,Open,B,F,Single-ply
3,Maj B Rames,1989,DEN,61.77,-145,-145,150,150,150,63,Open,B,F,Single-ply
4,Tetiana Melnyk,1985,UKR,62.69,130,137.5,147.5,147.5,147.5,63,Open,B,F,Single-ply
5,Karolina Arvidson,1985,SWE,62.41,120,-130,-137.5,120,120,63,Open,B,F,Single-ply
6,Faye Jordan,1982,GBR,61.62,-90,90,100,100,100,63,Open,B,F,Single-ply
7,Samantha LaCoe,1991,USA,62.34,77.5,82.5,90,90,90,63,Open,B,F,Single-ply
DQ,Oxana Pochinkina,1986,RUS,58.39,-145,-145,-145,,,63,Open,B,F,Single-ply
1,Kumi Mizoguchi,1988,JPN,71.56,150,152.5,160,160,160,72,Open,B,F,Single-ply
2,Yulia Chistiakova,1989,RUS,71.93,160,-167.5,-167.5,160,160,72,Open,B,F,Single-ply
3,Ankie Timmers,1986,NED,71.79,152.5,157.5,-162.5,157.5,157.5,72,Open,B,F,Single-ply
4,Bianca Wienroither,1984,AUT,69.57,-140,140,-152.5,140,140,72,Open,B,F,Single-ply
5,Hanne Hagen Rotnes,1989,NOR,71.15,132.5,-137.5,137.5,137.5,137.5,72,Open,B,F,Single-ply
6,Josephine Werngren,1976,SWE,65.67,120,132.5,-152.5,132.5,132.5,72,Open,B,F,Single-ply
7,Yvonne Wamnes,1992,DEN,70.39,-130,132.5,-140,132.5,132.5,72,Open,B,F,Single-ply
8,Katja Broxtermann,1986,GER,70.84,-105,105,-110,105,105,72,Open,B,F,Single-ply
9,Katrine Holmegaard Bak,1981,DEN,66.94,90,-95,-95,90,90,72,Open,B,F,Single-ply
10,Amy Welcome,1986,USA,69.59,77.5,82.5,85,85,85,72,Open,B,F,Single-ply
DQ,Ina Scholz,1978,GER,66.05,-117.5,-117.5,-117.5,,,72,Open,B,F,Single-ply
1,Lyudmila Protchenko,1986,RUS,83.7,177.5,182.5,185,185,185,84,Open,B,F,Single-ply
2,Frida Wik,1991,SWE,76.85,145,-147.5,155,155,155,84,Open,B,F,Single-ply
3,Alexandra Tichy,1990,AUT,83.07,120,127.5,135,135,135,84,Open,B,F,Single-ply
4,Kathrine Kristensen,1987,DEN,83.81,127.5,-132.5,-135,127.5,127.5,84,Open,B,F,Single-ply
DQ,Ielja Strik,1973,NED,83.87,-180,-180,-187.5,,,84,Open,B,F,Single-ply
1,Hildeborg Juvet Hugdal,1983,NOR,123.63,202.5,-210,210,210,210,84+,Open,B,F,Single-ply
2,Brenda van der Meulen,1978,NED,113.09,185,192.5,202.5,202.5,202.5,84+,Open,B,F,Single-ply
3,Annette Rehoff Christensen,1965,DEN,126.36,180,187.5,-195,187.5,187.5,84+,Open,B,F,Single-ply
4,Tetiana Bilousova,1975,UKR,100.12,157.5,-170,-170,157.5,157.5,84+,Open,B,F,Single-ply
5,Stephenie Dzurnak,1983,USA,125.68,-155,155,-187.5,155,155,84+,Open,B,F,Single-ply
6,Rie Skovgaard Larsen,1985,DEN,140.52,130,-135,-140,130,130,84+,Open,B,F,Single-ply
1,Olga Stoianova,2002,RUS,46.43,62.5,67.5,72.5,72.5,72.5,47,Sub-Juniors,B,F,Single-ply
2,Sylwia Mularczyk,2000,POL,46.1,45,50,57.5,57.5,57.5,47,Sub-Juniors,B,F,Single-ply
3,Lauren Kunkel,1999,USA,45.83,47.5,50,-57.5,50,50,47,Sub-Juniors,B,F,Single-ply
1,Viktoria Shteinke,1998,RUS,51.45,85,87.5,-90,87.5,87.5,52,Sub-Juniors,B,F,Single-ply
2,Ren Akazawa,1999,JPN,52,80,-87.5,-90,80,80,52,Sub-Juniors,B,F,Single-ply
3,Saniya Omarkhanova,1999,KAZ,51.9,75,-82.5,-82.5,75,75,52,Sub-Juniors,B,F,Single-ply
1,Daniela Kolesnik,1999,RUS,56.39,-130.5,130.5,140,140,140,57,Sub-Juniors,B,F,Single-ply
2,Miranda Chambers,2000,USA,55.48,90,92.5,102.5,102.5,102.5,57,Sub-Juniors,B,F,Single-ply
3,Kateryna Tkachuk,2000,UKR,56.67,75,80,85,85,85,57,Sub-Juniors,B,F,Single-ply
1,Sonja-Stefanie Krueger,1999,GER,62.7,116,122.5,127.5,127.5,127.5,63,Sub-Juniors,B,F,Single-ply
2,Taissiya Dyachenko,2000,KAZ,59.77,105,112.5,-123,112.5,112.5,63,Sub-Juniors,B,F,Single-ply
3,Zuzanna Firek,2000,POL,61.86,-82.5,82.5,-90,82.5,82.5,63,Sub-Juniors,B,F,Single-ply
4,Aleksandra Trojnar,1999,POL,62.25,60,-70,-70,60,60,63,Sub-Juniors,B,F,Single-ply
1,Shelby Miles,1998,USA,71.83,102.5,-107.5,-117.5,102.5,102.5,72,Sub-Juniors,B,F,Single-ply
2,Amber Kierstyn,1998,USA,69.64,85,87.5,-102.5,87.5,87.5,72,Sub-Juniors,B,F,Single-ply
3,Elli Rautiainen,1999,FIN,65.62,77.5,85,-90,85,85,72,Sub-Juniors,B,F,Single-ply
1,Alevtina Nikolayeva,1998,KAZ,81.97,95,100,-105,100,100,84,Sub-Juniors,B,F,Single-ply
2,Melissa Reyes,1998,USA,82,87.5,97.5,-102.5,97.5,97.5,84,Sub-Juniors,B,F,Single-ply
3,Lili Szabo,2000,HUN,72.43,60,80,-87.5,80,80,84,Sub-Juniors,B,F,Single-ply
1,Elizabeth Neitch,1998,USA,91.87,-102.5,102.5,110,110,110,84+,Sub-Juniors,B,F,Single-ply
1,Natalia Gorbacheva,1997,RUS,42.4,35,40,42.5,42.5,42.5,43,Juniors,B,F,Single-ply
1,Sabra Warren,1996,USA,45.54,75,85,-92.5,85,85,47,Juniors,B,F,Single-ply
2,Maryna Murzina,1995,UKR,46.79,85,-90,-90,85,85,47,Juniors,B,F,Single-ply
3,Mariia Burova,1995,RUS,46.86,80,85,-87.5,85,85,47,Juniors,B,F,Single-ply
4,Kotomi Hayakawa,1995,JPN,46.99,-85,85,-90,85,85,47,Juniors,B,F,Single-ply
DQ,Sarah Cruz-Ortiz,1994,USA,46.07,-65,-65,-65,,,47,Juniors,B,F,Single-ply
1,Marta Sroczyk,1995,POL,51.32,105,110,115,115,115,52,Juniors,B,F,Single-ply
2,Audrey Mingot,1993,FRA,51.09,105,107.5,-112.5,107.5,107.5,52,Juniors,B,F,Single-ply
3,Iryna Shkaraputa,1994,UKR,51.87,90,95,100,100,100,52,Juniors,B,F,Single-ply
4,Krystie Kettlewell,1996,USA,50.69,70,72.5,75,75,75,52,Juniors,B,F,Single-ply
5,Clara Graugaard Andersen,1993,DEN,51.4,72.5,75,-77.5,75,75,52,Juniors,B,F,Single-ply
1,Ganna Gonchar,1993,UKR,56.87,-122.5,-122.5,122.5,122.5,122.5,57,Juniors,B,F,Single-ply
2,Tatiana Rikhelgof,1997,RUS,56.36,-100,100,-105,100,100,57,Juniors,B,F,Single-ply
3,Yuki Sakura,1995,JPN,56.5,50,77.5,-82.5,77.5,77.5,57,Juniors,B,F,Single-ply
1,Akane Ishibashi,1993,JPN,60.91,112.5,117.5,125,125,125,63,Juniors,B,F,Single-ply
2,Aliya Tolegenova,1996,KAZ,62.22,112.5,-120,-122.5,112.5,112.5,63,Juniors,B,F,Single-ply
3,Kristina Odnokozova,1996,RUS,60.58,110,-115,-115,110,110,63,Juniors,B,F,Single-ply
4,Gabriella Grant,1994,USA,62.46,-100,100,-112.5,100,100,63,Juniors,B,F,Single-ply
1,Mariia Erokhina,1995,RUS,71.55,115,122.5,130,130,130,72,Juniors,B,F,Single-ply
2,Skyler Briggs,1995,USA,68.92,117.5,122.5,-130,122.5,122.5,72,Juniors,B,F,Single-ply
3,Maaike De Vries,1994,NED,70.57,117.5,122.5,-125,122.5,122.5,72,Juniors,B,F,Single-ply
4,Danielle Ross,1995,USA,64.59,115,-117.5,-122.5,115,115,72,Juniors,B,F,Single-ply
5,Marte Ingebrigtsen Sverdrup,1993,DEN,71.08,85,90,-95,90,90,72,Juniors,B,F,Single-ply
1,Alina Davletshina,1996,RUS,73.83,112.5,117.5,122.5,122.5,122.5,84,Juniors,B,F,Single-ply
2,Darya Shashkova,1997,UKR,78.94,105,-112.5,-120,105,105,84,Juniors,B,F,Single-ply
DQ,Delicia Garza,1996,USA,83.82,-130,-130,-130,,,84,Juniors,B,F,Single-ply
1,Kine Helene Fossbakk,1994,NOR,97.02,140,145,150,150,150,84+,Juniors,B,F,Single-ply
1,Terumi Yogo,1969,JPN,46.29,82.5,85,90,90,90,47,Masters 1,B,F,Single-ply
2,Tomoko Miyamoto,1967,JPN,46.35,-90,90,-92.5,90,90,47,Masters 1,B,F,Single-ply
1,Chiho Ito,1974,JPN,51.51,-80,80,90,90,90,52,Masters 1,B,F,Single-ply
2,Yumiko Ito,1976,JPN,51.16,60,70,75,75,75,52,Masters 1,B,F,Single-ply
DQ,Nathalie Feraud,1967,FRA,48.24,-82.5,-82.5,-85,,,52,Masters 1,B,F,Single-ply
1,Sylvie Mingot,1969,FRA,54.73,112.5,-115,115,115,115,57,Masters 1,B,F,Single-ply
2,Ann Kristin Olsen,1967,NOR,56.53,100,-115,-115,100,100,57,Masters 1,B,F,Single-ply
3,Yumiko Nagae,1974,JPN,56.68,70,80,82.5,82.5,82.5,57,Masters 1,B,F,Single-ply
4,Martina Rummel,1976,GER,54.48,70,75,80,80,80,57,Masters 1,B,F,Single-ply
5,Janel Brown,1973,USA,55,60,70,-82.5,70,70,57,Masters 1,B,F,Single-ply
1,Jennifer Thompson,1973,USA,62.92,125,137.5,-142.5,137.5,137.5,63,Masters 1,B,F,Single-ply
2,Isabelle Iliev,1967,FRA,61.28,130,-135,-137.5,130,130,63,Masters 1,B,F,Single-ply
3,Stephanie Carion,1974,FRA,60.68,70,105,110,110,110,63,Masters 1,B,F,Single-ply
1,Annette Pedersen,1968,DEN,71.62,115,-117.5,117.5,117.5,117.5,72,Masters 1,B,F,Single-ply
2,Satu Luoto,1969,FIN,67.54,105,-112.5,112.5,112.5,112.5,72,Masters 1,B,F,Single-ply
3,Jennifer Rey-Gaudreau,1971,USA,66.61,100,110,-115,110,110,72,Masters 1,B,F,Single-ply
4,Carmen Sjardijn,1969,NED,71.76,110,-115,-115,110,110,72,Masters 1,B,F,Single-ply
5,Chieko Kudo,1967,JPN,64.56,90,100,-110,100,100,72,Masters 1,B,F,Single-ply
6,Beverley Rodgers,1972,GBR,65.95,95,100,-110,100,100,72,Masters 1,B,F,Single-ply
1,Eva Engskar,1973,NOR,83.34,155,-165,-165,155,155,84,Masters 1,B,F,Single-ply
2,Anna Edvall,1976,SWE,83.2,122.5,127.5,-155,127.5,127.5,84,Masters 1,B,F,Single-ply
3,Stephanie Bastien,1974,FRA,81.34,-115,115,-127.5,115,115,84,Masters 1,B,F,Single-ply
4,Angelique Dalia,1972,FRA,79.2,105,110,-115,110,110,84,Masters 1,B,F,Single-ply
5,Virve Ilves,1970,FIN,75.93,72.5,77.5,85,85,85,84,Masters 1,B,F,Single-ply
DQ,Charlotte Esbjørn,1968,DEN,75.85,-95,-97.5,-97.5,,,84,Masters 1,B,F,Single-ply
1,Katariina Nokua,1973,FIN,109.81,140,-162.5,-162.5,140,140,84+,Masters 1,B,F,Single-ply
2,Piia Valkonen,1973,FIN,93,-115,115,125,125,125,84+,Masters 1,B,F,Single-ply
3,Mami Komatsu,1969,JPN,107.84,105,112.5,125,125,125,84+,Masters 1,B,F,Single-ply
1,Marion Friedrich,1965,GER,46.25,90,95,,95,95,47,Masters 2,B,F,Single-ply
2,Masami Shibata,1965,JPN,46.8,40,-55,55,55,55,47,Masters 2,B,F,Single-ply
1,Mika Teramura,1962,JPN,51.58,82.5,87.5,92.5,92.5,92.5,52,Masters 2,B,F,Single-ply
2,Christine Lesellier,1963,FRA,50.33,85,90,-92.5,90,90,52,Masters 2,B,F,Single-ply
3,Sandra Carli,1961,NED,50.08,80,-82.5,85,85,85,52,Masters 2,B,F,Single-ply
1,Tomoko Sakamaki,1965,JPN,55.31,95,102.5,-124.5,102.5,102.5,57,Masters 2,B,F,Single-ply
2,Pia Kring,1957,GER,55.99,75,-77.5,77.5,77.5,77.5,57,Masters 2,B,F,Single-ply
3,Karen Blessington,1960,USA,55.76,70,-75,75,75,75,57,Masters 2,B,F,Single-ply
4,Eira Pajuharju,1964,FIN,54.85,67.5,-72.5,72.5,72.5,72.5,57,Masters 2,B,F,Single-ply
1,Riitta Sundvall,1963,SWE,61.96,105,110,116,116,116,63,Masters 2,B,F,Single-ply
2,Patricia Maciejewski,1961,FRA,62.5,90,95,97.5,97.5,97.5,63,Masters 2,B,F,Single-ply
3,Anja Keränen,1959,SWE,63,-95,95,-100,95,95,63,Masters 2,B,F,Single-ply
4,Wing-Yuk Ip,1961,HKG,60.94,77.5,82.5,87.5,87.5,87.5,63,Masters 2,B,F,Single-ply
5,Line Coiffard,1958,FRA,60.29,77.5,85,-87.5,85,85,63,Masters 2,B,F,Single-ply
1,Iris Kunkel,1964,GER,69.68,117.5,-120,-120,117.5,117.5,72,Masters 2,B,F,Single-ply
2,Tarja Uppala,1965,FIN,66.93,-110,110,-117.5,110,110,72,Masters 2,B,F,Single-ply
3,Ursula Haeuser,1960,GER,70.25,92.5,-95,-100,92.5,92.5,72,Masters 2,B,F,Single-ply
4,Lene Einarsen,1963,NOR,71.7,82.5,-92.5,-95,82.5,82.5,72,Masters 2,B,F,Single-ply
DQ,Aline Leroy,1962,FRA,66.64,-90,-92.5,-92.5,,,72,Masters 2,B,F,Single-ply
1,Åsa Halvarsson,1961,SWE,78.33,97.5,105,110,110,110,84,Masters 2,B,F,Single-ply
1,Leila Duhem,1963,FRA,100.18,140,155,162.5,162.5,162.5,84+,Masters 2,B,F,Single-ply
2,Barbara Pawlik,1959,POL,100.54,120,125,130,130,130,84+,Masters 2,B,F,Single-ply
3,Paullete Calhoun,1958,USA,105.01,102.5,112.5,-127.5,112.5,112.5,84+,Masters 2,B,F,Single-ply
4,Sylvia Wunderlich,1965,GER,85.5,-105,-105,105,105,105,84+,Masters 2,B,F,Single-ply
1,Aira Knutars,1954,FIN,51.37,72.5,77.5,80.5,80.5,80.5,52,Masters 3,B,F,Single-ply
2,Denise Johnson,1947,USA,51.46,32.5,37.5,-40,37.5,37.5,52,Masters 3,B,F,Single-ply
1,Yuko Nagao,1950,JPN,55.35,40,75,-85,75,75,57,Masters 3,B,F,Single-ply
1,Yoshiko Komi,1955,JPN,62.92,100,105,-115.5,105,105,63,Masters 3,B,F,Single-ply
2,Evelyne Herbin,1956,FRA,62.46,82.5,87.5,-93,87.5,87.5,63,Masters 3,B,F,Single-ply
3,Lise Madsen,1953,DEN,61.82,60,62.5,-65,62.5,62.5,63,Masters 3,B,F,Single-ply
4,Marianne Lankau,1953,GER,60.4,52.5,55,-62.5,55,55,63,Masters 3,B,F,Single-ply
5,Leslie Macko,1949,USA,61.21,35,-40,40,40,40,63,Masters 3,B,F,Single-ply
1,Hana Takáčová,1954,CZE,71.58,110,115,-117.5,115,115,72,Masters 3,B,F,Single-ply
2,Chistine Liege Marie,1955,FRA,68.65,72.5,77.5,-82.5,77.5,77.5,72,Masters 3,B,F,Single-ply
1,Chiyomi Sawa,1949,JPN,75.86,100,110,120,120,120,84,Masters 3,B,F,Single-ply
2,Anke Beninga,1954,GER,73.3,70,77.5,-82.5,77.5,77.5,84,Masters 3,B,F,Single-ply
1,Eva Speth,1954,GER,86.52,100,105,107.5,107.5,107.5,84+,Masters 3,B,F,Single-ply
DQ,Masako Okumura,1930,JPN,46.9,-45,-45,-45,,,47,Masters 4,B,F,Single-ply
1,Yoshiko Furukawa,1939,JPN,51.74,60,62.5,64,64,64,52,Masters 4,B,F,Single-ply
2,Françoise Heligon,1943,FRA,49.03,52.5,57.5,-62.5,57.5,57.5,52,Masters 4,B,F,Single-ply
3,Bebe Burns,1942,USA,50.75,40,47.5,-50,47.5,47.5,52,Masters 4,B,F,Single-ply
1,Andree Duboux,1946,FRA,55.46,40,-45,-45,40,40,57,Masters 4,B,F,Single-ply
1,Adina Hyková,1943,CZE,61.72,72.5,-78.5,-78.5,72.5,72.5,63,Masters 4,B,F,Single-ply
2,Ursula Nothnagel,1936,GER,61.5,50,52.5,55,55,55,63,Masters 4,B,F,Single-ply
