Name,Color
Adam Leidigh,finland
Alec Dorner,lightblue
Amanda Kohatsu,green
Ben Gianacakos,pink
Boris Lerner,lightblue
Brady Stewart,america
Brody Laybolt,royalblue
Bryan Hartsel,yellow
Christian Habihirwe,gold italic
Dan Green,green
David O'Sullivan,rainbow
Erika Stevens,red
Esther Lee,lightblue
Garrett Fear,purple
Gemma Lucas,lightpink
Greg Nuckols,helvetica
Haley Hill,america
Ivy Knight,yellow
James Skinner,lightblue
Jamila Owens,green
Jawon Garrison,red
Jeff Justo,bold
Jenn Rotsinger,rainbow
Jeremy Willis #1,rainbow
Jessica Pippen,red
Jo Whiteley,purple
Joe Sullivan,lightblue
Joseph Park,rainbow
Kalle Räsänen,finland
Kris Lewis,rainbow
Kristy Hawkins,green
Kylee Craig,lightpink
Leonetta Richardson,yellow
Marina Cornwall,rainbow
Megan Hill,pink teal-shadow
Michael Vessia,purple small-caps letter-spacing-2
Patrick Jeffries,america
Rebecca Bachman,red
Reyhan Roybal,rainbow
Rick Simmons,lightblue
Robert Simmons,rainbow
Robyn Turnbull,rainbow
Sarah Wellberg,green
Susan Salazar,lightblue
Thomas Schwarz,red
Tommy O'Connor,green
Trystan Oakley,green
Zachary Langdon,royalblue
Zachary Lockhart,red
