Name,Sex,WeightClassKg,BodyweightKg,Squat1Kg,Squat2Kg,Squat3Kg,Best3SquatKg,Bench1Kg,Bench2Kg,Bench3Kg,Best3BenchKg,Deadlift1Kg,Deadlift2Kg,Deadlift3Kg,Best3DeadliftKg,TotalKg,Place,Event,Equipment
Alan Scherini,M,82.5,78.9,160,170,180,180,112.5,120,125,125,217.5,230,240,240,545,1,SBD,Single-ply
John Voight,M,82.5,81.9,185,200,-210,200,80,100,-115,100,185,200,220,220,520,2,SBD,Single-ply
Glenn Farrell,M,110,102.45,180,,,180,120,,,120,180,200,220,220,520,1,SBD,Single-ply
Ron Weston,M,75,73.75,130,145,150,150,85,90,92.5,92.5,165,175,180,180,422.5,1,SBD,Single-ply
Bradley Horne,M,125+,150,250,,,250,180,200,210,210,250,270,300,300,760,1,SBD,Single-ply
Bill Ogburn,M,90,87.35,210,220,232.5,232.5,130,135,-140,135,230,240,-245,240,607.5,1,SBD,Single-ply
